<svg width="18" height="18" viewBox="0 0 18 18" fill="none" xmlns="http://www.w3.org/2000/svg">
<path d="M8.99971 1.20068V16.8007M1.19971 9.00068H16.7997" stroke="#003366" stroke-width="1.5"/>
</svg>
